hw2
…
## # A tibble: 6 x 11
##   manufacturer model displ  year   cyl trans      drv     cty   hwy fl    class 
##   <chr>        <chr> <dbl> <int> <int> <chr>      <chr> <int> <int> <chr> <chr> 
## 1 audi         a4      1.8  1999     4 auto(l5)   f        18    29 p     compa
## 2 audi         a4      1.8  1999     4 manual(m5) f        21    29 p     compa
## 3 audi         a4      2    2008     4 manual(m6) f        20    31 p     compa
## 4 audi         a4      2    2008     4 auto(av)   f        21    30 p     compa
## 5 audi         a4      2.8  1999     6 auto(l5)   f        16    26 p     compa
## 6 audi         a4      2.8  1999     6 manual(m5) f        18    26 p     compa

compact <- mpg[which(mpg$class == "compact"),]
compact

## # A tibble: 47 x 11
##    manufacturer model    displ  year   cyl trans   drv     cty   hwy fl    class
##    <chr>        <chr>    <dbl> <int> <int> <chr>   <chr> <int> <int> <chr> <chr>
##  1 audi         a4         1.8  1999     4 auto(l f        18    29 p     comp
##  2 audi         a4         1.8  1999     4 manual f        21    29 p     comp
##  3 audi         a4         2    2008     4 manual f        20    31 p     comp
##  4 audi         a4         2    2008     4 auto(a f        21    30 p     comp
##  5 audi         a4         2.8  1999     6 auto(l f        16    26 p     comp
##  6 audi         a4         2.8  1999     6 manual f        18    26 p     comp
##  7 audi         a4         3.1  2008     6 auto(a f        18    27 p     comp
##  8 audi         a4 quat   1.8  1999     4 manual 4        18    26 p     comp
##  9 audi         a4 quat   1.8  1999     4 auto(l 4        16    25 p     comp
## 10 audi         a4 quat   2    2008     4 manual 4        20    28 p     comp
## #  with 37 more rows
…
There are few visible points because if you look closer at the graph the darker the circle is that means it is representing a duplicate of that point so thats why there is so little points

Are cars in 2008 more fuel efficient than cars in 1999? Use graphs and summary statistics to answer this question. Explain your findings.

cars2008<- mpg[mpg$year == 2008, ]
cars2008

## # A tibble: 117 x 11
##    manufacturer model     displ  year   cyl trans  drv     cty   hwy fl    class
##    <chr>        <chr>     <dbl> <int> <int> <chr>  <chr> <int> <int> <chr> <chr>
##  1 audi         a4          2    2008     4 manua f        20    31 p     comp
##  2 audi         a4          2    2008     4 auto( f        21    30 p     comp
##  3 audi         a4          3.1  2008     6 auto( f        18    27 p     comp
##  4 audi         a4 quatt   2    2008     4 manua 4        20    28 p     comp
##  5 audi         a4 quatt   2    2008     4 auto( 4        19    27 p     comp
##  6 audi         a4 quatt   3.1  2008     6 auto( 4        17    25 p     comp
##  7 audi         a4 quatt   3.1  2008     6 manua 4        15    25 p     comp
##  8 audi         a6 quatt   3.1  2008     6 auto( 4        17    25 p     mids
##  9 audi         a6 quatt   4.2  2008     8 auto( 4        16    23 p     mids
## 10 chevrolet    c1500 su   5.3  2008     8 auto( r        14    20 r     suv  
## #  with 107 more rows

cars1999<- mpg[mpg$year == 1999,]
cars1999

## # A tibble: 117 x 11
##    manufacturer model     displ  year   cyl trans  drv     cty   hwy fl    class
##    <chr>        <chr>     <dbl> <int> <int> <chr>  <chr> <int> <int> <chr> <chr>
##  1 audi         a4          1.8  1999     4 auto( f        18    29 p     comp
##  2 audi         a4          1.8  1999     4 manua f        21    29 p     comp
##  3 audi         a4          2.8  1999     6 auto( f        16    26 p     comp
##  4 audi         a4          2.8  1999     6 manua f        18    26 p     comp
##  5 audi         a4 quatt   1.8  1999     4 manua 4        18    26 p     comp
##  6 audi         a4 quatt   1.8  1999     4 auto( 4        16    25 p     comp
##  7 audi         a4 quatt   2.8  1999     6 auto( 4        15    25 p     comp
##  8 audi         a4 quatt   2.8  1999     6 manua 4        17    25 p     comp
##  9 audi         a6 quatt   2.8  1999     6 auto( 4        15    24 p     mids
## 10 chevrolet    c1500 su   5.7  1999     8 auto( r        13    17 r     suv  
## #  with 107 more rows
…
